(module C_Axial_L5mm_D19mm_P5.08mm_Horizontal (layer F.Cu) (tedit 617BE6FB)
  (fp_text reference REF** (at -2.54 -2.54) (layer F.SilkS)
    (effects (font (size 1 1) (thickness 0.15)))
  )
  (fp_text value C_Axial_L5mm_D19mm_P5.08mm_Horizontal (at 0 2.54) (layer F.Fab)
    (effects (font (size 1 1) (thickness 0.15)))
  )
  (fp_text user + (at -1.143 -1.524) (layer F.SilkS)
    (effects (font (size 1 1) (thickness 0.15)))
  )
  (pad 1 thru_hole rect (at -2.54 0) (size 2 2) (drill 1.2) (layers *.Cu *.Mask))
  (pad 2 thru_hole circle (at 2.54 0) (size 2 2) (drill 1.2) (layers *.Cu *.Mask))
)
